[
  {
    "serverName": "server_name_1",
    "applicationName": "application_name_1",
    "project": "PROJECTKEY",
    "repository": "repository-name",
    "environments": [
      "preprod",
      "prod"
    ]
  }
]
